…
``` r
got_alias <- got_chars %>% {
  tibble(name = map_chr(., "name"),
         aliases = map(., "aliases"))
}
got_alias
```

    ## # A tibble: 30 x 2
    ##    name               aliases   
    ##    <chr>              <list>    
    ##  1 Theon Greyjoy      <chr [4]> 
    ##  2 Tyrion Lannister   <chr [11]>
    ##  3 Victarion Greyjoy  <chr [1]> 
    ##  4 Will               <chr [1]> 
    ##  5 Areo Hotah         <chr [1]> 
    ##  6 Chett              <chr [1]> 
    ##  7 Cressen            <chr [1]> 
    ##  8 Arianne Martell    <chr [1]> 
    ##  9 Daenerys Targaryen <chr [11]>
    ## 10 Davos Seaworth     <chr [5]> 
    ## # ... with 20 more rows
…
    ##   A   B   C   D   E   F   G   H   I   J   K   L   M   N   O   P   Q   R 
    ## "a" "b" "c" "d" "e" "f" "g" "h" "i" "j" "k" "l" "m" "n" "o" "p" "q" "r" 
    ##   S   T   U   V   W   X   Y   Z 
    ## "s" "t" "u" "v" "w" "x" "y" "z"

Nesting/Unnesting; Operating
----------------------------

**Question**: What would tidy data of `got_alias` look like? Remember what `got_alias` holds:

``` r
got_alias
```

    ## # A tibble: 30 x 2
    ##    name               aliases   
    ##    <chr>              <list>    
    ##  1 Theon Greyjoy      <chr [4]> 
    ##  2 Tyrion Lannister   <chr [11]>
    ##  3 Victarion Greyjoy  <chr [1]> 
    ##  4 Will               <chr [1]> 
    ##  5 Areo Hotah         <chr [1]> 
    ##  6 Chett              <chr [1]> 
    ##  7 Cressen            <chr [1]> 
    ##  8 Arianne Martell    <chr [1]> 
    ##  9 Daenerys Targaryen <chr [11]>
    ## 10 Davos Seaworth     <chr [5]> 
    ## # ... with 20 more rows
…
``` r
got_alias %>%
  drop_na() %>%
  unnest()
```

    ## # A tibble: 114 x 2
    ##    name             aliases           
    ##    <chr>            <chr>             
    ##  1 Theon Greyjoy    Prince of Fools   
    ##  2 Theon Greyjoy    Theon Turncloak   
    ##  3 Theon Greyjoy    Reek              
    ##  4 Theon Greyjoy    Theon Kinslayer   
    ##  5 Tyrion Lannister The Imp           
    ##  6 Tyrion Lannister Halfman           
    ##  7 Tyrion Lannister The boyman        
    ##  8 Tyrion Lannister Giant of Lannister
    ##  9 Tyrion Lannister Lord Tywin's Doom 
    ## 10 Tyrion Lannister Lord Tywin's Bane 
    ## # ... with 104 more rows
…
